<svg width="221" height="84" viewBox="0 0 221 84" fill="none" xmlns="http://www.w3.org/2000/svg">
<path d="M124.869 41.843C124.045 42.2755 123.362 43.882 123.561 44.9323C123.647 45.3648 124.016 46.0754 124.414 46.477C125.011 47.0949 125.409 47.1876 127.115 47.1876C128.934 47.1876 129.161 47.1258 129.787 46.3225C130.753 45.0868 130.697 43.5421 129.645 42.3682C128.906 41.5649 128.621 41.4723 127.143 41.5032C126.233 41.5032 125.21 41.6576 124.869 41.843Z" fill="white"/>
<path d="M191.986 41.843C190.706 42.4918 190.28 44.5307 191.133 45.9518C191.787 47.0331 192.838 47.4347 194.686 47.2494C195.937 47.1567 196.363 46.9713 196.903 46.2917C197.841 45.0868 197.785 43.5112 196.733 42.3682C195.994 41.5649 195.709 41.4723 194.231 41.5032C193.322 41.5032 192.298 41.6576 191.986 41.843Z" fill="white"/>
<path d="M92.5188 42.708C90.9269 43.573 89.9035 45.3648 89.6761 47.7436C89.5624 48.794 89.534 54.0767 89.5908 59.4522C89.6761 68.8129 89.7045 69.2763 90.2731 70.1104C91.4386 71.8096 94.1676 71.8096 95.3331 70.1104C95.9016 69.2763 95.9301 68.7511 96.0722 60.379C96.1859 55.4978 96.2712 51.8833 96.2996 52.3158C96.3565 53.2117 100.848 67.639 101.587 69.3381C102.554 71.5315 105.51 72.1185 107.045 70.4503C107.614 69.8324 110.769 60.6879 112.134 55.6832C112.361 54.9109 112.702 53.6751 112.901 52.9028C113.242 51.6671 113.299 52.4085 113.413 60.5644L113.555 69.647L114.493 70.5429C115.545 71.5624 116.909 71.7169 118.245 70.9754C119.923 70.0486 119.951 69.7706 119.951 57.7531C119.951 46.1062 119.894 45.3957 118.558 43.8201C116.511 41.3795 112.361 41.6267 110.854 44.3144C110.343 45.2103 106.164 57.9693 105.368 61.0896C104.97 62.6033 104.97 62.6033 104.771 61.7074C104.657 61.1822 103.435 57.1661 102.013 52.7483C99.3413 44.3144 98.8865 43.3876 97.0103 42.5226C95.7026 41.9047 93.8549 41.9974 92.5188 42.708Z" fill="white"/>
<path d="M159.891 42.5227C158.84 43.0479 157.617 44.4381 157.219 45.5812C156.793 46.7551 156.793 69.0911 157.191 69.9252C157.589 70.7284 158.953 71.439 160.119 71.439C161.398 71.439 162.507 70.4813 162.876 69.0293C163.018 68.3805 163.16 64.2717 163.189 59.6995V51.5127L163.843 53.9842C164.184 55.3435 165.406 59.3596 166.543 62.9433C168.277 68.3805 168.789 69.5854 169.585 70.4195C170.381 71.2536 170.779 71.439 171.831 71.439C174.077 71.439 174.474 70.7593 177.118 62.6343C178.369 58.7109 179.563 54.7256 179.79 53.7062C180.018 52.7176 180.245 51.8217 180.33 51.729C180.416 51.6363 180.501 55.4053 180.501 60.132C180.501 69.3073 180.586 69.8943 181.979 70.9447C182.889 71.6243 184.822 71.5625 185.675 70.8211C187.011 69.678 187.068 69.2455 186.982 57.0426L186.897 45.6121L186.186 44.469C185.817 43.8512 185.021 43.0788 184.452 42.739C182.377 41.4724 179.108 42.2447 177.971 44.2837C177.459 45.1796 173.252 58.0312 172.485 61.0897L172.087 62.6343L171.717 60.997C171.518 60.1011 170.267 56.0849 168.96 52.0688C166.458 44.3763 165.946 43.3569 164.099 42.5227C162.933 41.9667 161 41.9976 159.891 42.5227Z" fill="white"/>
<path d="M139.822 50.1225C135.245 50.9875 132.487 55.4362 132.8 61.5222C133.056 66.3415 134.989 69.6162 138.173 70.6357C141.044 71.5625 143.716 71.0373 145.45 69.2146L146.388 68.226V69.987C146.388 72.1804 145.706 74.1267 144.711 74.6519C142.778 75.7022 141.016 75.486 139.395 73.9413C137.348 71.9641 134.733 73.1381 134.733 76.0112C134.733 78.2664 137.348 79.8111 141.556 80.0273C147.383 80.3054 150.88 78.081 152.187 73.2926C152.557 71.9332 152.642 69.9252 152.642 61.7693V51.9143L151.818 51.0184C150.709 49.8136 149.089 49.7827 147.838 50.9257C147.355 51.3582 146.957 51.9143 146.957 52.1615C146.957 52.4395 146.502 52.2233 145.678 51.5436C144.057 50.1843 142.067 49.69 139.822 50.1225ZM144.796 55.3435C146.388 56.8264 146.928 61.584 145.848 64.2408C144.512 67.3919 141.186 67.2066 139.822 63.901C138.855 61.584 139.253 57.2589 140.589 55.6524C141.556 54.5094 143.716 54.324 144.796 55.3435Z" fill="white"/>
<path d="M206.91 50.1225C205.062 50.4623 203.47 51.4509 202.219 52.9956C200.542 55.0654 199.974 57.0735 200.002 60.7807C200.002 64.5806 200.741 66.9285 202.504 68.8439C204.977 71.5625 209.724 71.9023 212.169 69.5544C212.709 69.0601 213.192 68.6585 213.306 68.6585C213.533 68.6585 213.533 71.0682 213.306 72.3348C212.737 75.3624 208.957 76.2583 206.512 73.9413C205.091 72.582 203.584 72.6129 202.532 73.9722C201.907 74.7754 201.793 75.177 201.907 76.1656C202.106 77.6794 202.646 78.2973 204.465 79.1932C206.398 80.12 210.605 80.3671 212.993 79.6875C216.405 78.6989 218.224 76.938 219.219 73.5397C219.731 71.8405 219.816 70.543 219.958 63.1904C220.1 53.4281 220.015 52.2232 218.878 50.9875C217.485 49.4737 214.756 50.0607 214.187 52.007C213.988 52.6248 213.988 52.6248 213.249 51.8525C211.799 50.3696 209.298 49.6591 206.91 50.1225ZM212.14 55.6215C213.107 56.6101 213.477 58.0003 213.477 60.7807C213.477 63.314 212.681 65.4765 211.487 66.0944C208.815 67.5464 206.37 64.8895 206.37 60.6262C206.398 57.4751 207.279 55.4979 208.957 54.8492C210.179 54.3858 211.146 54.6329 212.14 55.6215Z" fill="white"/>
<path d="M124.841 51.1728L123.789 52.2232V60.5644C123.789 69.6162 123.874 70.1414 125.409 71.0064C126.802 71.7788 128.138 71.5625 129.218 70.3885L130.185 69.3382V60.7807V52.2232L129.218 51.1728C127.854 49.6899 126.347 49.6899 124.841 51.1728Z" fill="white"/>
<path d="M191.986 51.1729L191.019 52.2232V60.7807V69.3382L191.986 70.3886C192.782 71.2536 193.18 71.439 194.146 71.439C195.113 71.439 195.511 71.2536 196.306 70.3886L197.273 69.3382V60.7807V52.2232L196.306 51.1729C195.511 50.3079 195.113 50.1225 194.146 50.1225C193.18 50.1225 192.782 50.3079 191.986 51.1729Z" fill="white"/>
<path d="M8.17031 5.43052C7.46484 5.79146 6.89062 6.75943 6.89062 7.54693C6.89062 8.28521 7.46484 9.3024 8.08828 9.63052C8.54766 9.89302 9.23672 9.94224 13.3711 10.0079C17.85 10.0899 18.1617 10.1063 18.7852 10.4508C19.5398 10.8446 20.1961 11.5172 20.557 12.2227C20.7867 12.6985 32.8125 52.6149 32.8125 52.9266C32.8125 53.025 31.9594 54.2227 30.9258 55.6172C28.8422 58.4063 28.3992 59.325 28.268 61.1133C28.0875 63.3282 28.8258 65.2641 30.4172 66.8719C31.9758 68.4141 33.5836 69.0539 35.9625 69.0703H37.2094L36.7008 70.0055C36.2086 70.9078 36.1758 71.0391 36.1758 72.7618C36.1758 74.4188 36.2086 74.6321 36.6187 75.4196C37.2094 76.5352 37.8984 77.2899 38.85 77.8969C41.9344 79.8657 46.0195 78.75 47.6109 75.5016C48.1195 74.468 48.1523 74.3039 48.1523 72.6797C48.1523 71.0555 48.1195 70.9078 47.6273 70.0055L47.1187 69.0703H54.4687H61.8187L61.3102 70.0055C60.818 70.9078 60.7852 71.0391 60.7852 72.7618C60.7852 74.4188 60.818 74.6321 61.2281 75.4196C61.8187 76.5352 62.5078 77.2899 63.4594 77.8969C66.5437 79.8657 70.6289 78.75 72.2203 75.5016C72.7289 74.468 72.7617 74.3039 72.7617 72.6797C72.7617 71.0555 72.7289 70.9078 72.2367 70.0055L71.7281 69.0703H76.8797C81.7359 69.0703 82.0805 69.0539 82.6875 68.7422C83.4258 68.3649 84 67.4297 84 66.6094C84 65.7891 83.4258 64.8539 82.6875 64.4766C82.0477 64.1485 81.7687 64.1485 58.5375 64.1485C35.9461 64.1485 34.9945 64.1321 34.4531 63.8368C33.6164 63.3938 33.1078 62.4586 33.1898 61.4907C33.2391 60.818 33.4687 60.4407 35.0437 58.3407L36.8156 55.9454H56.1914C78.1266 55.9454 76.3383 56.0602 77.0766 54.6164C77.3391 54.0914 78.3562 49.2516 80.7188 37.4063C82.5234 28.3336 84 20.7375 84 20.5079C84 19.868 83.3273 18.8508 82.6875 18.5227C82.1461 18.2274 81.0961 18.211 54.8461 18.211C29.0227 18.211 27.5789 18.1946 27.4969 17.9157C26.1516 13.2891 25.282 10.6969 24.8062 9.79459C23.6742 7.61255 21.3281 5.84068 18.9164 5.33208C18.0961 5.15162 16.5867 5.08599 13.2891 5.10239C9.12187 5.10239 8.72812 5.1188 8.17031 5.43052ZM38.0789 25.6758C38.325 27.0211 38.5547 28.3829 38.6039 28.6618L38.7023 29.2032H34.7977H30.893L30.532 28.0055C30.3352 27.3657 29.925 25.9875 29.6297 24.9704L29.0719 23.1329L33.3539 23.1657L37.6523 23.2149L38.0789 25.6758ZM51.4172 25.7086C51.4828 27.136 51.5484 28.4813 51.5648 28.711L51.5977 29.1211L47.6273 29.1704C44.9531 29.1868 43.6406 29.1539 43.6406 29.0391C43.6406 28.9407 43.4273 27.6118 43.1484 26.086C42.8859 24.5602 42.6562 23.2641 42.6562 23.2149C42.6562 23.1657 44.6086 23.1329 46.9875 23.1329H51.3187L51.4172 25.7086ZM64.9031 23.8219C64.8539 24.2157 64.7719 25.1836 64.7227 26.0039C64.6734 26.8079 64.5914 27.8743 64.5258 28.3336L64.4437 29.2032H60.5391C56.9461 29.2032 56.618 29.1868 56.5359 28.9079C56.5031 28.7602 56.4211 27.3985 56.3555 25.8727L56.2406 23.1329H60.6211H64.9852L64.9031 23.8219ZM77.9461 26.1188L77.3391 29.1211L73.3523 29.1704L69.3656 29.2032L69.4641 28.4321C69.5133 27.9891 69.5953 27.054 69.6445 26.3321C69.6937 25.6102 69.7758 24.593 69.825 24.068L69.9234 23.1329H74.2383H78.5367L77.9461 26.1188ZM39.6211 34.486C39.7687 35.175 40.5234 39.6047 40.5234 39.818C40.5234 39.9821 39.8344 40.0313 37.3242 40.0313H34.1414L33.7805 38.8336C33.5836 38.1938 33.1898 36.8649 32.8945 35.8805L32.3531 34.125H35.9461C39.5391 34.125 39.5391 34.125 39.6211 34.486ZM51.9094 35.4704C51.9586 36.225 52.0406 37.5539 52.0898 38.4235L52.1883 40.0313H48.907C45.6258 40.0313 45.6094 40.0313 45.5273 39.6539C45.3797 38.9813 44.625 34.5516 44.625 34.3383C44.625 34.1743 45.3961 34.125 48.218 34.125H51.8109L51.9094 35.4704ZM64.0828 34.7321C64.0336 35.0766 63.9516 36.061 63.9023 36.9141C63.8531 37.7672 63.7711 38.8172 63.7219 39.2438L63.6234 40.0313H60.375H57.1266L57.0281 38.6696C56.9789 37.9313 56.8969 36.6024 56.8477 35.7164L56.7492 34.125H60.457H64.1812L64.0828 34.7321ZM76.2891 34.2563C76.2891 34.4039 75.3867 38.9649 75.2227 39.6539C75.1406 40.0313 75.1242 40.0313 71.843 40.0313H68.5453L68.6437 39.4079C68.693 39.0797 68.775 38.0954 68.8242 37.2422C68.8734 36.3891 68.9555 35.3391 69.0047 34.8961L69.1031 34.125H72.6961C74.6648 34.125 76.2891 34.1907 76.2891 34.2563ZM41.5078 45.1172C41.5078 45.2157 41.7375 46.5446 42 48.0704C42.2789 49.5961 42.4922 50.8922 42.4922 50.9414C42.4922 50.9907 41.3602 51.0235 39.9656 51.0235C37.6852 51.0235 37.4227 50.9907 37.3406 50.7282C37.2914 50.5805 36.9305 49.3336 36.5203 47.9555C36.1102 46.5938 35.7656 45.3633 35.7656 45.2157C35.7656 44.986 36.1102 44.9532 38.6367 44.9532C40.4742 44.9532 41.5078 45.0188 41.5078 45.1172ZM52.4016 45.2321C52.4344 45.3961 52.5164 46.7579 52.582 48.2836L52.6969 51.0399L50.0883 50.9907L47.4961 50.9414L47.0695 48.4805C46.8234 47.1188 46.5938 45.7735 46.5445 45.4782L46.4461 44.9532H49.3828C52.0406 44.9532 52.3195 44.986 52.4016 45.2321ZM63.2625 45.7243C63.2133 46.1672 63.1312 47.1024 63.082 47.8243C63.0328 48.5461 62.9508 49.5633 62.9016 50.0719L62.8031 51.0235H60.1945H57.5859L57.5695 50.0719C57.5695 49.5633 57.5039 48.218 57.4547 47.1188C57.3891 46.0032 57.3727 45.0516 57.4055 45.0188C57.4383 44.986 58.8 44.9532 60.4242 44.9532H63.3609L63.2625 45.7243ZM74.107 45.3141C74.0578 45.5274 73.7789 46.8891 73.4836 48.3493L72.9586 51.0235H70.35H67.7414L67.8234 50.318C67.8727 49.9407 67.9547 48.9563 68.0039 48.1524C68.0531 47.3321 68.1352 46.2821 68.2008 45.8063L68.2828 44.9532H71.2359H74.1891L74.107 45.3141Z" fill="white"/>
<path d="M4.56094 31.6805C3.85547 32.0414 3.28125 33.0094 3.28125 33.7969C3.28125 34.6172 3.85547 35.5523 4.59375 35.9297C5.20078 36.2414 5.54531 36.2578 9.84375 36.2578C14.1422 36.2578 14.4867 36.2414 15.0937 35.9297C15.832 35.5523 16.4062 34.6172 16.4062 33.7969C16.4062 32.9766 15.832 32.0414 15.0937 31.6641C14.4867 31.3523 14.1422 31.3359 9.81094 31.3359C5.5125 31.3523 5.11875 31.3687 4.56094 31.6805Z" fill="white"/>
<path d="M1.27969 41.5242C0.574219 41.8852 0 42.8531 0 43.6406C0 44.4609 0.574219 45.3961 1.3125 45.7734C1.85391 46.0523 2.28047 46.1016 4.10156 46.1016C6.64453 46.1016 7.31719 45.8719 7.875 44.7891C8.28516 43.9688 8.28516 43.3125 7.875 42.4922C7.31719 41.4094 6.66094 41.1797 4.06875 41.1797C2.21484 41.1961 1.78828 41.2453 1.27969 41.5242Z" fill="white"/>
<path d="M12.7641 41.5242C12.0586 41.8852 11.4844 42.8531 11.4844 43.6406C11.4844 44.4609 12.0586 45.3961 12.7969 45.7734C13.4039 46.0852 13.7484 46.1016 18.0469 46.1016C22.3453 46.1016 22.6898 46.0852 23.2969 45.7734C24.0352 45.3961 24.6094 44.4609 24.6094 43.6406C24.6094 42.8203 24.0352 41.8852 23.2969 41.5078C22.6898 41.1961 22.3453 41.1797 18.0141 41.1797C13.7156 41.1961 13.3219 41.2125 12.7641 41.5242Z" fill="white"/>
<path d="M4.56094 51.368C3.85547 51.7289 3.28125 52.6969 3.28125 53.4844C3.28125 54.3047 3.85547 55.2398 4.59375 55.6172C5.20078 55.9289 5.54531 55.9453 9.84375 55.9453C14.1422 55.9453 14.4867 55.9289 15.0937 55.6172C15.832 55.2398 16.4062 54.3047 16.4062 53.4844C16.4062 52.6641 15.832 51.7289 15.0937 51.3516C14.4867 51.0398 14.1422 51.0234 9.81094 51.0234C5.5125 51.0398 5.11875 51.0563 4.56094 51.368Z" fill="white"/>
</svg>
