<svg width="14" height="14" viewBox="0 0 14 14" fill="none" xmlns="http://www.w3.org/2000/svg">
<path d="M5.20456 12.2628V10.4228C5.20455 9.95478 5.60618 9.5745 6.1038 9.57136H7.92658C8.42657 9.57136 8.8319 9.95256 8.8319 10.4228V12.2686C8.83178 12.6659 9.169 12.9907 9.59139 13H10.8066C12.018 13 13 12.0764 13 10.9371V5.7027C12.9935 5.2545 12.7698 4.83361 12.3924 4.55982L8.23646 1.41118C7.50838 0.86294 6.47339 0.86294 5.74532 1.41118L1.60759 4.56553C1.22879 4.83821 1.00467 5.2598 1 5.70842V10.9371C1 12.0764 1.98203 13 3.19342 13H4.40861C4.84149 13 5.1924 12.67 5.1924 12.2628" stroke="black" stroke-width="1.5" stroke-linecap="round" stroke-linejoin="round"/>
</svg>
