<svg width="13" height="13" viewBox="0 0 13 13" fill="none" xmlns="http://www.w3.org/2000/svg">
<g clip-path="url(#clip0_341_1448)">
<path d="M-2.84123e-07 6.50003C-2.27929e-07 7.7856 0.381218 9.0423 1.09545 10.1112C1.80968 11.1801 2.82484 12.0132 4.01256 12.5052C5.20028 12.9972 6.50721 13.1259 7.76809 12.8751C9.02896 12.6243 10.1872 12.0052 11.0962 11.0962C12.0052 10.1872 12.6243 9.02898 12.8751 7.76811C13.1259 6.50724 12.9972 5.20031 12.5052 4.0126C12.0132 2.82488 11.1801 1.80973 10.1112 1.0955C9.04229 0.381276 7.78558 5.87875e-05 6.5 5.88437e-05C4.77609 5.8919e-05 3.12279 0.684875 1.90381 1.90386C0.684819 3.12284 -3.59477e-07 4.77613 -2.84123e-07 6.50003H-2.84123e-07ZM11.9167 6.50003C11.9167 7.57134 11.599 8.61859 11.0038 9.50935C10.4086 10.4001 9.56264 11.0944 8.57287 11.5044C7.5831 11.9143 6.49399 12.0216 5.44326 11.8126C4.39253 11.6036 3.42737 11.0877 2.66984 10.3302C1.9123 9.57264 1.39642 8.60749 1.18741 7.55676C0.97841 6.50604 1.08568 5.41693 1.49565 4.42717C1.90563 3.43741 2.59989 2.59144 3.49066 1.99626C4.38143 1.40107 5.42868 1.08339 6.5 1.08339C7.93659 1.08339 9.31434 1.65407 10.3302 2.66988C11.346 3.6857 11.9167 5.06345 11.9167 6.50003Z" fill="#727272"/>
</g>
<path d="M9.20833 5.95825L3.79167 5.95825C3.49251 5.95825 3.25 6.20076 3.25 6.49992C3.25 6.79907 3.49251 7.04159 3.79167 7.04159L9.20833 7.04159C9.50749 7.04159 9.75 6.79907 9.75 6.49992C9.75 6.20076 9.50749 5.95825 9.20833 5.95825Z" fill="#727272"/>
<defs>
<clipPath id="clip0_341_1448">
<rect width="12.9999" height="13" fill="white" transform="translate(0 13) rotate(-90)"/>
</clipPath>
</defs>
</svg>
