<svg width="17" height="17" viewBox="0 0 17 17" fill="none" xmlns="http://www.w3.org/2000/svg">
<g clip-path="url(#clip0_466_2842)">
<path d="M8.5001 1.41686C9.43971 1.41994 10.3694 1.60934 11.2353 1.9741C12.1012 2.33885 12.8862 2.87172 13.5449 3.54186H11.3334C11.1456 3.54186 10.9654 3.61649 10.8326 3.74933C10.6997 3.88217 10.6251 4.06233 10.6251 4.2502C10.6251 4.43806 10.6997 4.61822 10.8326 4.75106C10.9654 4.8839 11.1456 4.95853 11.3334 4.95853H14.2681C14.6169 4.95834 14.9513 4.8197 15.198 4.57306C15.4446 4.32642 15.5832 3.99196 15.5834 3.64315V0.708529C15.5834 0.520667 15.5088 0.3405 15.376 0.207662C15.2431 0.0748233 15.063 0.000195475 14.8751 0.000195475C14.6872 0.000195475 14.5071 0.0748233 14.3742 0.207662C14.2414 0.3405 14.1668 0.520667 14.1668 0.708529V2.18045C12.996 1.12606 11.5549 0.418402 10.0047 0.136726C8.45449 -0.14495 6.8565 0.0104748 5.38966 0.585596C3.92281 1.16072 2.64503 2.13282 1.6994 3.39306C0.753775 4.65329 0.177641 6.15189 0.0355194 7.72103C0.0263701 7.81967 0.0378681 7.91913 0.0692807 8.01309C0.100693 8.10704 0.151332 8.19342 0.217969 8.26672C0.284607 8.34002 0.365783 8.39864 0.456325 8.43883C0.546867 8.47903 0.644789 8.49993 0.743853 8.50019C0.917103 8.5024 1.08494 8.43987 1.21451 8.32484C1.34408 8.20982 1.42606 8.05057 1.44439 7.87828C1.60208 6.11506 2.41338 4.47453 3.71891 3.27896C5.02444 2.08338 6.72985 1.41919 8.5001 1.41686Z" fill="white"/>
<path d="M16.257 8.50006C16.0838 8.49785 15.916 8.56038 15.7864 8.67541C15.6568 8.79044 15.5748 8.94968 15.5565 9.12197C15.4394 10.4701 14.9381 11.7564 14.112 12.8281C13.2859 13.8999 12.1696 14.7122 10.8958 15.1687C9.62189 15.6252 8.2438 15.7067 6.925 15.4036C5.60619 15.1004 4.40201 14.4253 3.45533 13.4584H5.66675C5.85461 13.4584 6.03478 13.3838 6.16762 13.2509C6.30045 13.1181 6.37508 12.9379 6.37508 12.7501C6.37508 12.5622 6.30045 12.382 6.16762 12.2492C6.03478 12.1164 5.85461 12.0417 5.66675 12.0417H2.73212C2.55936 12.0416 2.38827 12.0756 2.22864 12.1417C2.06901 12.2077 1.92397 12.3046 1.80181 12.4268C1.67964 12.549 1.58276 12.694 1.51669 12.8536C1.45061 13.0133 1.41666 13.1843 1.41675 13.3571V16.2917C1.41675 16.4796 1.49138 16.6598 1.62421 16.7926C1.75705 16.9254 1.93722 17.0001 2.12508 17.0001C2.31294 17.0001 2.49311 16.9254 2.62595 16.7926C2.75879 16.6598 2.83341 16.4796 2.83341 16.2917V14.8198C4.00417 15.8742 5.44533 16.5819 6.99551 16.8635C8.54569 17.1452 10.1437 16.9898 11.6105 16.4147C13.0774 15.8396 14.3552 14.8674 15.3008 13.6072C16.2464 12.347 16.8225 10.8484 16.9647 9.27923C16.9738 9.18058 16.9623 9.08112 16.9309 8.98717C16.8995 8.89321 16.8489 8.80684 16.7822 8.73353C16.7156 8.66023 16.6344 8.60162 16.5439 8.56142C16.4533 8.52122 16.3554 8.50032 16.2563 8.50006H16.257Z" fill="white"/>
</g>
<defs>
<clipPath id="clip0_466_2842">
<rect width="17" height="17" fill="white"/>
</clipPath>
</defs>
</svg>
